<svg width="24" height="23" viewBox="0 0 24 23" fill="none" xmlns="http://www.w3.org/2000/svg">
<path d="M13.125 18.0627H10.875C10.35 18.0627 9.9 18.4877 9.9 18.9835C9.9 19.4793 10.35 19.9043 10.875 19.9043H13.125C13.65 19.9043 14.1 19.4793 14.1 18.9835C14.1 18.4877 13.65 18.0627 13.125 18.0627ZM18.675 15.8668H18.075V10.3418C18.075 7.43766 15.825 5.10016 12.9 4.67516V3.75433C12.9 3.2585 12.525 2.8335 12 2.8335C11.475 2.8335 11.025 3.2585 11.025 3.75433V4.67516C8.1 5.10016 5.85 7.5085 5.85 10.3418V15.8668H5.4C4.875 15.8668 4.5 16.2918 4.5 16.7877C4.5 17.2835 4.95 17.7085 5.475 17.7085H6.9H17.25H18.75C19.275 17.7085 19.725 17.2835 19.725 16.7877C19.725 16.2918 19.2 15.8668 18.675 15.8668ZM7.725 15.8668V10.3418C7.725 8.146 9.6 6.37516 11.925 6.37516C14.25 6.37516 16.125 8.146 16.125 10.3418V15.8668H7.725Z" fill="#8E8EA1"/>
</svg>
